lab0/lab0/bit_counter.vcd
$date
   Wed Jan 08 12:50:49 2020
$end
$version
  P.68d
$end
$timescale
  1ps
$end
$scope module counter_tb $end
$scope module UUT $end
$var wire 1 ! rst $end
$var wire 1 " clk $end
$var reg 1 # a0 $end
$var reg 1 $ a1 $end
$var reg 1 % a2 $end
$var reg 1 & a3 $end
$var reg 4 ' a [3:0] $end
$upscope $end
$upscope $end
$enddefinitions $end
#0
$dumpvars
1!
0"
x#
x$
x%
x&
bx '
$end
#5000
1"
0#
0$
0%
0&
b0 '
#10000
0!
0"
#15000
1"
1#
b1 '
#20000
0"
#25000
1"
0#
1$
b10 '
#30000
0"
#35000
1"
1#
b11 '
#40000
0"
#45000
1"
0#
0$
1%
b100 '
#50000
0"
#55000
1"
1#
b101 '
#60000
0"
#65000
1"
0#
1$
b110 '
#70000
0"
#75000
1"
1#
b111 '
#80000
0"
#85000
1"
0#
0$
0%
1&
b1000 '
#90000
0"
#95000
1"
1#
b1001 '
#100000
0"
#105000
1"
0#
1$
b1010 '
#110000
0"
#115000
1"
1#
b1011 '
#120000
0"
#125000
1"
0#
0$
1%
b1100 '
#130000
0"
#135000
1"
1#
b1101 '
#140000
0"
#145000
1"
0#
1$
b1110 '
#150000
0"
#155000
1"
1#
b1111 '
